493
124A09;40.889248;-73.898583
134A09;40.884667;-73.90087
575A09;40.878856;-73.904834
240A09;40.874561;-73.909831
141A09;40.869444;-73.915279
260A09;40.864621;-73.918822
269A09;40.860531;-73.925536
173A09;40.855225;-73.929412
194A09;40.849505;-73.933596
512A09;40.840556;-73.940133
202A09;40.834041;-73.94489
263A09;40.826551;-73.95036
162A09;40.822008;-73.953676
222A09;40.815581;-73.958372
067A09;40.807722;-73.96411
265A09;40.803967;-73.966847
280A09;40.799446;-73.968379
104A08;40.793919;-73.972323
103A08;40.788644;-73.976218
573A08;40.783934;-73.979917
226A09;40.778453;-73.98197
230A09;40.77344;-73.982209
259A08;40.768247;-73.981929
234A08;40.761728;-73.983849
296A10;40.75529;-73.987495
476A09;40.750373;-73.991057
046A09;40.747215;-73.993365
175A10;40.744081;-73.995657
081A08;40.74104;-73.997871
099A08;40.737826;-74.000201
478A11;40.733422;-74.002906
100A10;40.728251;-74.005367
105A10;40.722854;-74.006277
027A09;40.719318;-74.006886
253A08;40.715478;-74.009266
307A08;40.711835;-74.012188
331A08;40.707513;-74.013783
541A08;40.701411;-74.013205
212A08;40.903125;-73.85062
400A08;40.898379;-73.854376
399A08;40.893193;-73.857473
369A08;40.888022;-73.860341
475A11;40.883895;-73.862633
473A11;40.87785;-73.866256
104A10;40.871356;-73.867164
109A10;40.865462;-73.867352
189A10;40.857192;-73.867615
190A10;40.848828;-73.868457
181A10;40.841894;-73.873488
280A10;40.840295;-73.880049
318A09;40.837288;-73.887734
336A09;40.829993;-73.891865
340A09;40.824073;-73.893064
029A09;40.822181;-73.896736
342A08;40.819585;-73.90177
022A08;40.81649;-73.907807
211A08;40.816109;-73.917757
354A08;40.81841;-73.926718
033A08;40.814229;-73.94077
356A08;40.807754;-73.945495
360A08;40.802098;-73.949625
393A08;40.799075;-73.951822
303A08;40.713051;-74.008811
213A06;40.709416;-74.006571
123A11;40.706821;-74.0091
124A11;40.697466;-73.993086
179A11;40.693219;-73.989998
114A10;40.690545;-73.985065
066A10;40.688246;-73.980492
067A10;40.684359;-73.977666
204A10;40.680829;-73.975098
213A10;40.675235;-73.971046
055A09;40.671987;-73.964375
358A09;40.670682;-73.958131
378A09;40.667883;-73.950683
132A08;40.662742;-73.95085
216A06;40.656652;-73.9502
448A11;40.650843;-73.949575
129A11;40.645098;-73.948959
182A11;40.639967;-73.948411
215A10;40.632836;-73.947642
335A10;40.669847;-73.950466
219A10;40.669399;-73.942161
218A10;40.668897;-73.932942
064A09;40.664717;-73.92261
443A08;40.661453;-73.916327
460A08;40.662549;-73.908946
138A07;40.663515;-73.902447
347A07;40.664635;-73.894895
337A07;40.665449;-73.889395
101A06;40.666235;-73.884079
224A10;40.82388;-73.93647
231A10;40.820421;-73.936245
306A10;40.886037;-73.878751
307A10;40.87975;-73.884655
227A10;40.873412;-73.890064
043A10;40.86776;-73.897174
355A09;40.862803;-73.901034
395A09;40.858407;-73.903879
126A08;40.853453;-73.907684
191A08;40.84848;-73.911794
114A08;40.844434;-73.914685
555A08;40.840075;-73.917791
122A07;40.835537;-73.9214
154A07;40.827994;-73.925831
155A07;40.818375;-73.927351
224A07;40.813224;-73.929849
096A06;40.710368;-74.009509
237A11;40.707557;-74.011862
154A11;40.704817;-74.014065
291A11;40.692404;-73.990151
389A09;40.8883;-73.830834
032A09;40.878663;-73.838591
496A08;40.869526;-73.846384
429A08;40.858985;-73.855359
162A07;40.854364;-73.860495
289A07;40.852462;-73.828121
208A06;40.84681;-73.832569
363A06;40.843863;-73.836322
358A06;40.839892;-73.842952
231A06;40.836488;-73.847036
268A11;40.834255;-73.851222
276A11;40.833226;-73.860816
413A11;40.831509;-73.867618
318A11;40.829521;-73.874516
312A11;40.828584;-73.879159
239A10;40.826525;-73.886283
267A10;40.820948;-73.890549
509A09;40.816104;-73.896435
507A09;40.812118;-73.904098
471A09;40.808719;-73.907657
559A08;40.805368;-73.914042
491A08;40.807566;-73.91924
490A08;40.810476;-73.926138
159A07;40.804138;-73.937594
160A07;40.798629;-73.941617
242A06;40.079502;-73.94425
304A06;40.7906;-73.947478
521A11;40.785672;-73.95107
328A11;40.779492;-73.955589
327A11;40.77362;-73.959874
501A11;40.768141;-73.96387
085A11;40.762526;-73.967967
075A10;40.757107;-73.97192
045A10;40.751776;-73.976848
017A09;40.746081;-73.982076
111A09;4.074307;-73.984264
089A09;40.739864;-73.986599
116A08;40.734673;-73.989951
015A09;40.730054;-73.99107
584A08;40.725915;-73.994659
494A08;40.722301;-73.997141
193A07;40.718803;-74.000193
129A07;40.713065;-74.004131
179A07;40.7596;-73.83003
061A06;40.754622;-73.845625
221A05;40.75173;-73.855334
072A05;40.749865;-73.8627
073A05;40.749145;-73.869527
222A05;40.748408;-73.876613
247A05;40.747659;-73.883697
342A11;40.746848;-73.891394
136A10;40.746325;-73.896403
048A10;40.74563;-73.902984
033A10;40.744149;-73.912549
302A10;40.743132;-73.918435
432A09;40.743781;-73.924016
434A09;40.744587;-73.930997
083A09;40.750582;-73.940202
436A09;40.747023;-73.945264
014A09;40.742216;-73.948916
142A08;40.742626;-73.953581
103A07;40.751431;-73.976041
074A07;40.753821;-73.981963
204A07;40.755477;-73.987691
203A07;40.752769;-73.979189
238A07;40.755983;-73.986229
367A06;40.868072;-73.919899
077A06;40.865491;-73.927271
227A05;40.859022;-73.93418
149A10;40.851695;-73.937969
085A09;40.847391;-73.939704
510A09;40.840719;-73.939561
236A05;40.836013;-73.939892
243A05;40.830518;-73.941514
360A11;40.824783;-73.944216
370A11;40.817894;-73.947649
060A10;40.811109;-73.952343
072A10;40.805085;-73.954882
008A09;40.800603;-73.958161
055A10;40.796092;-73.961454
518A09;40.791642;-73.964696
469A08;40.785868;-73.968916
326A07;40.781433;-73.972143
028A06;40.775594;-73.97641
188A06;40.768296;-73.981736
104A06;40.762456;-73.985984
203A05;40.757308;-73.989735
229A05;40.752287;-73.993391
438A05;40.745906;-73.998041
090A04;40.740893;-74.00169
045A04;40.732338;-74.000495
092A04;40.726227;-74.003739
093A04;40.720824;-74.005229
141A03;40.714111;-74.008585
143A03;40.710197;-74.007691
094A12;40.699337;-73.990531
112A12;40.692338;-73.987342
029A12;40.688484;-73.985001
005A12;40.686113;-73.973946
135A12;40.683263;-73.965838
034A11;40.68138;-73.956848
078A09;40.680438;-73.950426
048A08;40.679921;-73.940858
097A07;40.679364;-73.930729
072A07;40.678822;-73.920786
203A06;40.67834;-73.911946
206A06;40.678334;-73.905316
196A06;40.674542;-73.896548
096A05;40.67271;-73.890358
035A04;40.67413;-73.88075
095A04;40.675377;-73.872106
173A04;40.677044;-73.86505
172A04;40.679371;-73.858992
175A04;40.679843;-73.85147
038A04;40.680429;-73.843853
316A04;40.681711;-73.837683
126A03;40.684331;-73.832163
106A12;40.685951;-73.825798
157A12;40.754203;-73.942836
038A12;40.759145;-73.95326
233A12;40.764629;-73.966113
128A12;40.763972;-73.97745
387A11;40.646292;-73.994324
093A09;40.640914;-73.994304
108A08;40.63626;-73.994791
210A07;40.631435;-73.995476
255A07;40.626472;-73.996895
063A07;40.619589;-73.998864
094A07;40.613501;-74.00061
043A06;40.607954;-74.001736
394A06;40.604556;-73.998168
231A05;40.601875;-73.993728
173A05;40.597704;-73.986829
143A04;40.588841;-73.983765
268A04;40.874811;-73.878855
318A04;40.873244;-73.887138
149A03;40.866978;-73.893509
448A03;40.861296;-73.897749
159A12;40.856093;-73.900741
367A12;40.85041;-73.905227
337A12;40.8459;-73.910136
161A12;40.839306;-73.9134
041A12;40.833771;-73.91844
222A12;40.827905;-73.925651
235A12;40.830135;-73.938209
247A12;40.824783;-73.944216
260A12;40.762862;-73.981637
309A12;40.758663;-73.981329
290A12;40.754222;-73.984569
291A12;40.749719;-73.987823
354A12;40.742878;-73.992821
076A10;40.738228;-73.996209
354A07;40.732338;-74.000495
552A08;40.725297;-73.996204
050A07;40.718267;-73.993753
064A07;40.068446;-73.97689
023A07;40.067705;-73.972367
169A06;40.661614;-73.962246
069A06;40.655292;-73.961495
089A05;40.650527;-73.962982
430A05;40.644031;-73.964492
077A05;40.640927;-73.963891
322A05;40.635082;-73.962793
323A05;40.62927;-73.961639
080A05;40.625039;-73.960803
171A05;40.617618;-73.959399
408A04;40.60867;-73.957734
151A04;40.5993;-73.955929
149A04;40.59546;-73.955161
196A04;40.586896;-73.954155
299A04;40.577621;-73.961376
094A03;40.576312;-73.968501
076A03;40.576127;-73.975939
291A03;40.577422;-73.981233
402A03;40.712582;-74.009781
403A03;40.712646;-73.783817
368A12;40.71047;-73.793604
075A12;40.707564;-73.803326
179A12;40.70546;-73.810708
053A12;40.709179;-73.820574
026A12;40.714441;-73.831008
056A12;40.718331;-73.837324
256A12;40.747846;-73.946
014A12;40.757552;-73.969055
293A12;40.760167;-73.975224
299A12;40.723402;-73.989938
066A12;40.718611;-73.988114
303A12;40.713715;-73.990173
047A12;40.701397;-73.986751
048A12;40.686145;-73.990862
078A10;40.680303;-73.995048
084A10;40.067358;-73.995959
325A10;40.670272;-73.989779
038A10;40.666271;-73.980305
122A00;40.660365;-73.979493
515A08;40.650782;-73.975776
040A08;40.644041;-73.979678
270A07;40.636119;-73.978172
049A07;40.629755;-73.976971
328A07;40.625322;-73.976127
003A07;40.620769;-73.975264
001A07;40.61514;-73.974197
108A07;40.608944;-73.973022
132C06;40.603217;-73.972361
375A06;40.596063;-73.973357
129A05;40.58962;-73.97425
439A05;40.581011;-73.974574
425A05;40.702147;-73.801109
421A05;40.700486;-73.807969
431A05;40.702566;-73.816859
034A05;40.721691;-73.844521
365A05;40.726523;-73.852719
029A05;40.729846;-73.861604
333A05;40.733106;-73.869229
309A04;40.737015;-73.877223
331A04;40.742454;-73.882017
155A03;40.746644;-73.891338
074A03;40.749669;-73.898453
313A03;40.752885;-73.906006
168A12;40.756312;-73.913333
373A12;40.756879;-73.92074
370A12;40.752039;-73.928781
379A12;40.748973;-73.937243
385A12;40.746554;-73.943832
258A12;40.744065;-73.949724
157A13;40.731352;-73.954449
065A12;40.724635;-73.951277
043A12;40.712792;-73.951418
104A11;40.706092;-73.950308
416A00;40.700377;-73.950234
245A07;40.694568;-73.949046
280A07;40.689627;-73.953522
384A06;40.688873;-73.96007
142A06;40.688089;-73.966839
040A06;40.687119;-73.975375
386A06;40.668234;-73.834058
115A05;40.668234;-73.834058
427A05;40.660476;-73.830301
007A04;40.608382;-73.815925
189A04;40.590927;-73.796924
202A03;40.592374;-73.788522
304A03;40.592943;-73.776013
544A03;40.595398;-73.768175
120A03;40.600066;-73.761353
161A13;40.603995;-73.755405
169A13;40.588034;-73.813641
368A13;40.585307;-73.820558
028A13;40.583209;-73.827559
283A05;40.580903;-73.835592
007A05;40.700492;-73.828294
115A04;40.697418;-73.836345
259A04;40.695178;-73.84433
339A04;40.693879;-73.851576
008A04;40.692435;-73.86001
066A04;40.691324;-73.867139
067A04;40.689941;-73.87255
088A04;40.683194;-73.873785
009A04;40.68141;-73.880039
082A03;40.679947;-73.884639
079A03;40.678024;-73.891688
341A03;40.676992;-73.898654
340A03;40.679498;-73.904512
524A03;40.682893;-73.910456
348A03;40.68637;-73.916559
195A03;40.68963;-73.92227
127A13;40.693342;-73.928814
074A13;40.739777;-74.002578
080A13;40.737335;-73.996786
171A13;40.734789;-73.99073
038A13;40.732849;-73.986122
017A13;40.730953;-73.981628
451A13;40.717304;-73.956872
324A12;40.714063;-73.950275
359A00;40.714565;-73.944053
201A00;40.711926;-73.94067
322A00;40.707739;-73.93985
200A00;40.706152;-73.933147
288A07;40.706607;-73.922913
025A07;40.703811;-73.918425
034A06;40.699814;-73.911586
005A05;40.695602;-73.904084
147A05;40.688764;-73.904046
294A05;40.682829;-73.905249
359A05;40.678856;-73.90324
157A04;40.675345;-73.903097
207A04;40.669367;-73.901975
208A04;40.664038;-73.900571
202A04;40.658733;-73.899232
002A04;40.650573;-73.899485
006A03;40.646654;-73.90185
060A03;40.711396;-73.889601
366A03;40.706186;-73.895877
029A03;40.704423;-73.903077
098A03;40.702762;-73.90774
108A13;40.69943;-73.912385
129A13;40.698664;-73.919711
150A13;40.697857;-73.927397
148A13;40.697207;-73.935657
147A13;40.70026;-73.941126
082A13;40.703869;-73.947408
202A13;40.70687;-73.953431
204A13;40.708359;-73.957757
455A13;40.718315;-73.987437
105A13;40.072028;-73.993915
007A13;40.718092;-73.999892
321A00;40.713243;-74.003401
258A00;40.710374;-74.007582
009A00;40.706476;-74.011056
017A05;40.635064;-74.011719
150A05;40.631386;-74.005351
199A05;40.624842;-73.996353
123A05;40.620671;-73.990414
293A05;40.061741;-73.985026
209A04;40.611815;-73.981848
235A04;40.603923;-73.980353
325A04;40.597473;-73.979137
352A03;40.592721;-73.97823
552A03;40.718383;-74.00046
551A03;40.775036;-73.912034
113A03;40.770258;-73.917843
548A03;40.766779;-73.921479
058A13;40.076182;-73.925508
054A13;40.756804;-73.929575
236A13;40.752882;-73.932755
098A13;40.750582;-73.940202
253A13;40.76266;-73.967258
003A13;40.764811;-73.973347
259A13;40.764664;-73.980658
325A13;40.759901;-73.984139
064A00;40.754672;-73.986754
694A00;40.749567;-73.98795
016A05;40.745494;-73.988691
156A05;40.741303;-73.989344
015A04;40.735736;-73.990568
003A03;40.730328;-73.992629
449A03;40.724329;-73.997702
482A03;40.719527;-74.001775
460A13;40.713282;-74.006978
272A13;40.710668;-74.011029
463A13;40.070722;-74.013342
472A13;40.703087;-74.012994
475A13;40.6941;-73.991777
328A13;40.069218;-73.985942
333A13;40.690635;-73.981824
250A00;40.683666;-73.97881
254A00;40.677316;-73.98311
647A00;40.670847;-73.988302
028A00;40.665414;-73.992872
133A00;40.660397;-73.998091
134A00;40.655144;-74.003549
037A00;40.648939;-74.010006
186A05;40.645069;-74.014034
187A05;40.641362;-74.017881
073A04;40.634967;-74.023377
227A03;40.629742;-74.02551
032A03;40.622687;-74.028398
285A13;40.616622;-74.030876
296A13;40.680596;-73.955827
417A13;40.674772;-73.957624
249A00;40.670343;-73.959245
243A00;40.512764;-74.251961
183A00;40.515401;-74.245689
347A00;40.517812;-74.238373
350A00;40.519631;-74.229141
024A00;40.052241;-74.217847
391A00;40.525507;-74.200064
022A00;40.533674;-74.191794
016A00;40.054046;-74.178217
006A00;40.544601;-74.16457
095A00;40.551231;-74.151399
581A00;40.5564;-74.136907
001A03;40.056511;-74.12632
044A03;40.057348;-74.11721
047A02;40.578965;-74.109704
184A03;40.583591;-74.103338
077A02;40.588849;-74.09609
106A02;40.596612;-74.087368
155A02;40.603117;-74.084087
027A02;40.621319;-74.071402
543B03;40.627915;-74.075162
308A13;40.636949;-74.074835
363A13;40.643748;-74.073643